<svg xmlns="http://www.w3.org/2000/svg" width="20.75" height="17" viewBox="0 0 20.75 17">
  <g id="Group_2" data-name="Group 2" transform="translate(0.375 -3.375)">
    <path id="Shape" d="M3.75,0H1.25A1.25,1.25,0,0,0,0,1.25v12.5A1.25,1.25,0,0,0,1.25,15H15a1.25,1.25,0,0,0,1.25-1.25V10" transform="translate(0.625 4.375)" fill="none" stroke="#173143" stroke-linecap="round" stroke-linejoin="round" stroke-miterlimit="10" stroke-width="2"/>
    <path id="Shape-2" data-name="Shape" d="M11.25,0H5A5,5,0,0,0,0,5V7.5" transform="translate(8.125 5.625)" fill="none" stroke="#173143" stroke-linecap="round" stroke-linejoin="round" stroke-miterlimit="10" stroke-width="2"/>
  </g>
</svg>
