<svg xmlns="http://www.w3.org/2000/svg" width="20.75" height="19.833" viewBox="0 0 20.75 19.833">
  <g id="shape-star" transform="translate(0.375 0.916)">
    <path id="Shape" d="M9.375,0l2.9,5.87,6.477.941L14.063,11.38l1.106,6.453L9.375,14.786,3.581,17.833,4.688,11.38,0,6.811,6.477,5.87,9.375,0Z" transform="translate(0.625 0.084)" fill="none" stroke="#173143" stroke-linecap="round" stroke-linejoin="round" stroke-miterlimit="10" stroke-width="2"/>
  </g>
</svg>
