<svg xmlns="http://www.w3.org/2000/svg" width="22" height="25" viewBox="0 0 22 25">
  <g id="single-01" transform="translate(0.5 0.5)">
    <path id="Shape" d="M19.5,3.728a1.5,1.5,0,0,0-.639-1.23A15.55,15.55,0,0,0,9.75.014,15.55,15.55,0,0,0,.639,2.5,1.5,1.5,0,0,0,0,3.728V7.514H19.5Z" transform="translate(0.75 15.736)" fill="none" stroke="#5ba829" stroke-linecap="round" stroke-linejoin="round" stroke-miterlimit="10" stroke-width="2.5"/>
    <circle id="Oval" cx="5.25" cy="5.25" r="5.25" stroke-width="2.5" transform="translate(5.25 0.75)" stroke="#5ba829" stroke-linecap="round" stroke-linejoin="round" stroke-miterlimit="10" fill="none"/>
  </g>
</svg>
