<svg xmlns="http://www.w3.org/2000/svg" width="23.5" height="25.04" viewBox="0 0 23.5 25.04">
  <g id="Group_2" data-name="Group 2" transform="translate(-247.5 -12.5)">
    <g id="trophy" transform="translate(248 13)">
      <path id="Shape" d="M1,7.54V0" transform="translate(10.25 15.75)" fill="none" stroke="#5ba829" stroke-linecap="round" stroke-linejoin="round" stroke-miterlimit="10" stroke-width="2.5"/>
      <path id="Shape-2" data-name="Shape" d="M0,0H4.5V4.5A4.5,4.5,0,0,1,0,9H0" transform="translate(17.25 2.25)" fill="none" stroke="#5ba829" stroke-linecap="round" stroke-linejoin="round" stroke-miterlimit="10" stroke-width="2.5"/>
      <path id="Shape-3" data-name="Shape" d="M4.5,0H0V4.5A4.5,4.5,0,0,0,4.5,9h0" transform="translate(0.75 2.25)" fill="none" stroke="#5ba829" stroke-linecap="round" stroke-linejoin="round" stroke-miterlimit="10" stroke-width="2.5"/>
      <path id="Shape-4" data-name="Shape" d="M0,0H12V9a6,6,0,0,1-6,6H6A6,6,0,0,1,0,9Z" transform="translate(5.25 0.75)" fill="none" stroke="#5ba829" stroke-linecap="round" stroke-linejoin="round" stroke-miterlimit="10" stroke-width="2.5"/>
    </g>
    <path id="Path_1" data-name="Path 1" d="M253.132,36.25h12.975" fill="none" stroke="#5ba829" stroke-linecap="round" stroke-width="2.5"/>
  </g>
</svg>
