<svg xmlns="http://www.w3.org/2000/svg" width="22" height="21.333" viewBox="0 0 22 21.333">
  <g id="icon-mapView" transform="translate(1 1)">
    <g id="map-pin">
      <path id="Shape" d="M16.667,1,20,0V13.333L13.333,16,6.667,13.333,0,16V2.667L3.333,1.333" transform="translate(0 3.333)" fill="none" stroke="#5ba829" stroke-linecap="round" stroke-linejoin="round" stroke-miterlimit="10" stroke-width="2"/>
      <path id="Shape-2" data-name="Shape" d="M9.333,4.545C9.333,7.351,4.667,12,4.667,12S0,7.351,0,4.545A4.569,4.569,0,0,1,4.667,0,4.569,4.569,0,0,1,9.333,4.545Z" transform="translate(5.333)" fill="none" stroke="#5ba829" stroke-linecap="round" stroke-linejoin="round" stroke-miterlimit="10" stroke-width="2"/>
      <circle id="Oval" cx="1.333" cy="1.333" r="1.333" stroke-width="2" transform="translate(8.667 3.333)" stroke="#5ba829" stroke-linecap="round" stroke-linejoin="round" stroke-miterlimit="10" fill="none"/>
    </g>
  </g>
</svg>
