<svg xmlns="http://www.w3.org/2000/svg" width="77.617" height="14" viewBox="0 0 77.617 14">
  <g id="Group_2" data-name="Group 2" transform="translate(-42 -62)">
    <path id="Shape" d="M6.309,0l1.95,3.95,4.359.633L9.463,7.658,10.207,12l-3.9-2.05L2.41,12l.744-4.342L0,4.583,4.359,3.95,6.309,0Z" transform="translate(43 63)" fill="none" stroke="#cdd614" stroke-linecap="round" stroke-linejoin="round" stroke-miterlimit="10" stroke-width="2"/>
    <path id="Shape_Copy" data-name="Shape Copy" d="M6.309,0l1.95,3.95,4.359.633L9.463,7.658,10.207,12l-3.9-2.05L2.41,12l.744-4.342L0,4.583,4.359,3.95,6.309,0Z" transform="translate(64 63)" fill="none" stroke="#cdd614" stroke-linecap="round" stroke-linejoin="round" stroke-miterlimit="10" stroke-width="2"/>
    <path id="Shape_Copy_2" data-name="Shape Copy 2" d="M6.309,0l1.95,3.95,4.359.633L9.463,7.658,10.207,12l-3.9-2.05L2.41,12l.744-4.342L0,4.583,4.359,3.95,6.309,0Z" transform="translate(85 63)" fill="none" stroke="#cdd614" stroke-linecap="round" stroke-linejoin="round" stroke-miterlimit="10" stroke-width="2"/>
    <path id="Shape_Copy_3" data-name="Shape Copy 3" d="M6.309,0l1.95,3.95,4.359.633L9.463,7.658,10.207,12l-3.9-2.05L2.41,12l.744-4.342L0,4.583,4.359,3.95,6.309,0Z" transform="translate(106 63)" fill="none" stroke="#cdd614" stroke-linecap="round" stroke-linejoin="round" stroke-miterlimit="10" stroke-width="2"/>
  </g>
</svg>
