<?xml version="1.0" encoding="utf-8"?>
<!-- Generator: Adobe Illustrator 23.0.1, SVG Export Plug-In . SVG Version: 6.00 Build 0)  -->
<svg version="1.1" id="Layer_1" xmlns="http://www.w3.org/2000/svg" xmlns:xlink="http://www.w3.org/1999/xlink" x="0px" y="0px"
	 viewBox="0 0 18.2 25" style="enable-background:new 0 0 18.2 25;" xml:space="preserve">
<style type="text/css">
	.st0{fill:none;stroke:#E75480;stroke-width:2.5;stroke-linecap:round;stroke-linejoin:round;stroke-miterlimit:10;}
</style>
<g id="bookmark-2" transform="translate(0.5 0.5)">
	<path id="Shape" class="st0" d="M0.8,23.3l7.8-4.5l7.8,4.5V3.8c0.1-1.5-1.1-2.9-2.6-3H3.4c-1.5,0.1-2.7,1.5-2.6,3V23.3z"/>
</g>
</svg>
